[gd_scene load_steps=13 format=2]

[ext_resource path="res://Scenes/SettingWindow/NamaSetting.tscn" type="PackedScene" id=1]
[ext_resource path="res://Theme/Perkedel_Tema.tres" type="Theme" id=2]
[ext_resource path="res://Scenes/JustWorkingSetting.gd" type="Script" id=3]
[ext_resource path="res://GameDVDCardtridge/TemplateHexagonEngine/MenuPart/InheritableSetting/InheritableSettingVolume.tscn" type="PackedScene" id=4]
[ext_resource path="res://Scenes/SettingWindow/LayarSetting.tscn" type="PackedScene" id=5]
[ext_resource path="res://modules/UI/FirebaseQuestChallenge.tscn" type="PackedScene" id=6]
[ext_resource path="res://Scenes/Modules/FireBaseAuther.tscn" type="PackedScene" id=7]
[ext_resource path="res://font/ubuntu-font-family-0.83/Ubuntu-B.ttf" type="DynamicFontData" id=8]
[ext_resource path="res://modules/UI/SparePart/ButtoneBigJust.tscn" type="PackedScene" id=9]
[ext_resource path="res://GameDVDCardtridge/TemplateHexagonEngine/MenuPart/InheritableSetting/TestoidSpeakerTryer.tscn" type="PackedScene" id=10]

[sub_resource type="DynamicFont" id=1]
resource_local_to_scene = true
resource_name = "Ubuntu 72 Bold"
size = 72
outline_size = 3
outline_color = Color( 0.0862745, 0.0392157, 0.317647, 1 )
font_data = ExtResource( 8 )

[sub_resource type="DynamicFont" id=2]
resource_local_to_scene = true
resource_name = "Ubuntu 72 Bold"
size = 72
outline_size = 3
outline_color = Color( 0.0862745, 0.0392157, 0.317647, 1 )
font_data = ExtResource( 8 )

[node name="JustWorkingSetting" type="AcceptDialog"]
anchor_left = 0.5
anchor_top = 0.5
anchor_right = 0.5
anchor_bottom = 0.5
margin_left = -793.0
margin_top = -376.0
margin_right = 792.0
margin_bottom = 377.0
theme = ExtResource( 2 )
window_title = "An Setting"
script = ExtResource( 3 )
__meta__ = {
"_edit_use_anchors_": false
}

[node name="Scrolle" type="ScrollContainer" parent="."]
anchor_right = 1.0
anchor_bottom = 1.0
margin_left = 16.0
margin_top = 16.0
margin_right = -16.0
margin_bottom = -59.0
__meta__ = {
"_edit_use_anchors_": false
}

[node name="Windowe" type="VBoxContainer" parent="Scrolle"]
margin_right = 1553.0
margin_bottom = 1066.0
size_flags_horizontal = 3
size_flags_vertical = 3

[node name="NamaSetting" parent="Scrolle/Windowe" instance=ExtResource( 1 )]
margin_right = 1541.0

[node name="LayarSetting" parent="Scrolle/Windowe" instance=ExtResource( 5 )]
margin_right = 1541.0

[node name="anMasterVolume" parent="Scrolle/Windowe" instance=ExtResource( 4 )]
margin_top = 171.0
margin_right = 1541.0
margin_bottom = 234.0
VariableName = "Master Volume"
VolumeBus = "Master"

[node name="anMusicVolume" parent="Scrolle/Windowe" instance=ExtResource( 4 )]
margin_top = 238.0
margin_right = 1541.0
margin_bottom = 301.0
VariableName = "Music Volume"
VolumeBus = "Music"
TestoidPitch = 0.5

[node name="anSFXVolume" parent="Scrolle/Windowe" instance=ExtResource( 4 )]
margin_top = 305.0
margin_right = 1541.0
margin_bottom = 368.0
VariableName = "SFX Volume"
VolumeBus = "SoundEffect"
TestoidPitch = 1.5

[node name="FirebaseQuestChallenge" parent="Scrolle/Windowe" instance=ExtResource( 6 )]
visible = false
anchor_right = 0.0
margin_top = 372.0
margin_right = 1541.0
margin_bottom = 878.0

[node name="FireBaseAuther" parent="Scrolle/Windowe" instance=ExtResource( 7 )]
anchor_left = 0.0
anchor_right = 0.0
margin_left = 0.0
margin_top = 372.0
margin_right = 1541.0
margin_bottom = 468.0

[node name="ButtoneBigJust" parent="Scrolle/Windowe" instance=ExtResource( 9 )]
visible = false
custom_fonts/font = SubResource( 1 )

[node name="ShowModListMenu" parent="Scrolle/Windowe" instance=ExtResource( 9 )]
margin_right = 1541.0
custom_fonts/font = SubResource( 2 )
text = "Show Mods List"

[node name="TestoidSpeakerTryer" parent="Scrolle/Windowe" instance=ExtResource( 10 )]
visible = false
margin_top = 566.0
margin_right = 1541.0
margin_bottom = 1066.0
[connection signal="confirmed" from="." to="." method="_on_JustWorkingSetting_confirmed"]
[connection signal="custom_action" from="." to="." method="_on_JustWorkingSetting_custom_action"]
[connection signal="popup_hide" from="." to="." method="_on_JustWorkingSetting_popup_hide"]
[connection signal="pressed" from="Scrolle/Windowe/ShowModListMenu" to="." method="_on_ShowModListMenu_pressed"]
