; Engine configuration file.
; It's best edited using the editor UI and not directly,
; since the parameters that go here are not all obvious.
;
; Format:
;   [section] ; section goes between []
;   param=value ; assign values to parameters

config_version=4

_global_script_classes=[ {
"base": "Node",
"class": "AdMob",
"language": "GDScript",
"path": "res://admob-lib/admob.gd"
}, {
"base": "DocItem",
"class": "ArgumentDocItem",
"language": "GDScript",
"path": "res://addons/silicon.util.custom_docs/doc_item/argument_doc_item.gd"
}, {
"base": "Reference",
"class": "Array2D",
"language": "GDScript",
"path": "res://addons/godot-next/references/array_2d.gd"
}, {
"base": "Reference",
"class": "ArrayUtils",
"language": "GDScript",
"path": "res://addons/SIsilicon.3d.text/array_utils.gd"
}, {
"base": "AudioStreamPlayer",
"class": "AudioStreamPlayerADSR",
"language": "GDScript",
"path": "res://addons/midi/ADSR.gd"
}, {
"base": "Reference",
"class": "Bank",
"language": "GDScript",
"path": "res://addons/midi/Bank.gd"
}, {
"base": "Resource",
"class": "BaseGameObject",
"language": "GDScript",
"path": "res://addons/gcs/baseGameObject.gd"
}, {
"base": "Resource",
"class": "BaseGameSystem",
"language": "GDScript",
"path": "res://addons/gcs/baseGameSystem.gd"
}, {
"base": "Resource",
"class": "BaseGameWorld",
"language": "GDScript",
"path": "res://addons/gcs/baseGameWorld.gd"
}, {
"base": "AudioStreamPlayer",
"class": "BeatPlayer",
"language": "GDScript",
"path": "res://addons/beatplayer/beatplayer.gd"
}, {
"base": "Resource",
"class": "Behavior",
"language": "GDScript",
"path": "res://addons/godot-next/resources/behavior.gd"
}, {
"base": "Reference",
"class": "BitFlag",
"language": "GDScript",
"path": "res://addons/godot-next/references/bit_flag.gd"
}, {
"base": "Control",
"class": "CSVEditor",
"language": "GDScript",
"path": "res://addons/file-editor/scripts/CSVEditor.gd"
}, {
"base": "Reference",
"class": "CSVFile",
"language": "GDScript",
"path": "res://addons/godot-next/references/csv_file.gd"
}, {
"base": "Node",
"class": "CallbackDelegator",
"language": "GDScript",
"path": "res://addons/godot-next/nodes/callback_delegator.gd"
}, {
"base": "Control",
"class": "Chart",
"language": "GDScript",
"path": "res://addons/easy_charts/Utilities/Scripts/chart.gd"
}, {
"base": "Node2D",
"class": "Chart2D",
"language": "GDScript",
"path": "res://addons/easy_charts/Utilities/Scripts/chart2d.gd"
}, {
"base": "DocItem",
"class": "ClassDocItem",
"language": "GDScript",
"path": "res://addons/silicon.util.custom_docs/doc_item/class_doc_item.gd"
}, {
"base": "Reference",
"class": "ClassType",
"language": "GDScript",
"path": "res://addons/godot-next/references/class_type.gd"
}, {
"base": "Node",
"class": "Colorblindness",
"language": "GDScript",
"path": "res://addons/paulloz.colorblindness/colorblindness.gd"
}, {
"base": "Chart",
"class": "ColumnChart",
"language": "GDScript",
"path": "res://addons/easy_charts/ColumnChart/column_chart.gd"
}, {
"base": "Chart2D",
"class": "ColumnChart2D",
"language": "GDScript",
"path": "res://addons/easy_charts/ColumnChart2D/column_chart2D.gd"
}, {
"base": "Resource",
"class": "Component",
"language": "GDScript",
"path": "res://addons/gcs/component.gd"
}, {
"base": "DocItem",
"class": "ConstantDocItem",
"language": "GDScript",
"path": "res://addons/silicon.util.custom_docs/doc_item/constant_doc_item.gd"
}, {
"base": "HBoxContainer",
"class": "ContributorClass",
"language": "GDScript",
"path": "res://addons/github-integration/scripts/ContributorClass.gd"
}, {
"base": "TabContainer",
"class": "Cycle",
"language": "GDScript",
"path": "res://addons/godot-next/gui/cycle.gd"
}, {
"base": "Reference",
"class": "DataFrame",
"language": "GDScript",
"path": "res://addons/easy_charts/Utilities/Data/data_frame.gd"
}, {
"base": "Label",
"class": "DebugLabel",
"language": "GDScript",
"path": "res://addons/godot-next/gui/debug_label.gd"
}, {
"base": "Node",
"class": "Dialogic",
"language": "GDScript",
"path": "res://addons/dialogic/Other/dialogic_class.gd"
}, {
"base": "Reference",
"class": "DialogicUtil",
"language": "GDScript",
"path": "res://addons/dialogic/Other/DialogicUtil.gd"
}, {
"base": "ImageTexture",
"class": "DiscreteGradientTexture",
"language": "GDScript",
"path": "res://addons/godot-next/resources/DiscreteGradientTexture.gd"
}, {
"base": "Reference",
"class": "DocExporter",
"language": "GDScript",
"path": "res://addons/silicon.util.custom_docs/doc_exporter/doc_exporter.gd"
}, {
"base": "Reference",
"class": "DocItem",
"language": "GDScript",
"path": "res://addons/silicon.util.custom_docs/doc_item/doc_item.gd"
}, {
"base": "Reference",
"class": "EditorTools",
"language": "GDScript",
"path": "res://addons/godot-next/global/editor_tools.gd"
}, {
"base": "Node",
"class": "FLMusicLib",
"language": "NativeScript",
"path": "res://FLMusicLib/FLMusic.gdns"
}, {
"base": "FastTextInit",
"class": "FastText",
"language": "GDScript",
"path": "res://Tulkit/FastText/FastText.gd"
}, {
"base": "Label",
"class": "FastTextInit",
"language": "GDScript",
"path": "res://Tulkit/FastText/FastText_init.gd"
}, {
"base": "Reference",
"class": "FileSearch",
"language": "GDScript",
"path": "res://addons/godot-next/global/file_search.gd"
}, {
"base": "Reference",
"class": "FileSystemLink",
"language": "GDScript",
"path": "res://addons/godot-next/global/file_system_link.gd"
}, {
"base": "HTTPRequest",
"class": "FirebaseAuth",
"language": "GDScript",
"path": "res://addons/godot-firebase/auth/auth.gd"
}, {
"base": "Node",
"class": "FirebaseDatabase",
"language": "GDScript",
"path": "res://addons/godot-firebase/database/database.gd"
}, {
"base": "Node",
"class": "FirebaseDatabaseReference",
"language": "GDScript",
"path": "res://addons/godot-firebase/database/reference.gd"
}, {
"base": "Node",
"class": "FirebaseDatabaseStore",
"language": "GDScript",
"path": "res://addons/godot-firebase/database/database_store.gd"
}, {
"base": "Node",
"class": "FirebaseDynamicLinks",
"language": "GDScript",
"path": "res://addons/godot-firebase/dynamiclinks/dynamiclinks.gd"
}, {
"base": "Node",
"class": "FirebaseFirestore",
"language": "GDScript",
"path": "res://addons/godot-firebase/firestore/firestore.gd"
}, {
"base": "Reference",
"class": "FirebaseResource",
"language": "GDScript",
"path": "res://addons/godot-firebase/database/resource.gd"
}, {
"base": "Reference",
"class": "FirebaseStorage",
"language": "GDScript",
"path": "res://addons/godot-firebase/storage/storage.gd"
}, {
"base": "Reference",
"class": "FirebaseUserData",
"language": "GDScript",
"path": "res://addons/godot-firebase/auth/user_data.gd"
}, {
"base": "Reference",
"class": "FirestoreCollection",
"language": "GDScript",
"path": "res://addons/godot-firebase/firestore/firestore_collection.gd"
}, {
"base": "Reference",
"class": "FirestoreDocument",
"language": "GDScript",
"path": "res://addons/godot-firebase/firestore/firestore_document.gd"
}, {
"base": "Reference",
"class": "FirestoreQuery",
"language": "GDScript",
"path": "res://addons/godot-firebase/firestore/firestore_query.gd"
}, {
"base": "Reference",
"class": "FirestoreTask",
"language": "GDScript",
"path": "res://addons/godot-firebase/firestore/firestore_task.gd"
}, {
"base": "CanvasLayer",
"class": "FpsLabel",
"language": "GDScript",
"path": "res://Scripts/ExtraImportAsset/FPSLabel.gd"
}, {
"base": "Node",
"class": "FsmState",
"language": "GDScript",
"path": "res://addons/jm_game_template/jm_state.gd"
}, {
"base": "GDDlg_AttributeBase",
"class": "GDDlg_AttributeArray",
"language": "GDScript",
"path": "res://addons/gddlg/attributes/basic_types/GDDlg_AttributeArray.gd"
}, {
"base": "Object",
"class": "GDDlg_AttributeBase",
"language": "GDScript",
"path": "res://addons/gddlg/attributes/GDDlg_AttributeBase.gd"
}, {
"base": "GDDlg_AttributeBase",
"class": "GDDlg_AttributeBool",
"language": "GDScript",
"path": "res://addons/gddlg/attributes/basic_types/GDDlg_AttributeBool.gd"
}, {
"base": "GDDlg_AttributeBase",
"class": "GDDlg_AttributeInteger",
"language": "GDScript",
"path": "res://addons/gddlg/attributes/basic_types/GDDlg_AttributeInteger.gd"
}, {
"base": "GDDlg_AttributeBase",
"class": "GDDlg_AttributeMap",
"language": "GDScript",
"path": "res://addons/gddlg/attributes/basic_types/GDDlg_AttributeMap.gd"
}, {
"base": "GDDlg_AttributeBase",
"class": "GDDlg_AttributeString",
"language": "GDScript",
"path": "res://addons/gddlg/attributes/basic_types/GDDlg_AttributeString.gd"
}, {
"base": "GDDlg_ConditionOr",
"class": "GDDlg_ConditionAnd",
"language": "GDScript",
"path": "res://addons/gddlg/conditions/basic_logic/GDDlg_ConditionAnd.gd"
}, {
"base": "Object",
"class": "GDDlg_ConditionBase",
"language": "GDScript",
"path": "res://addons/gddlg/conditions/GDDlg_ConditionBase.gd"
}, {
"base": "GDDlg_ConditionBase",
"class": "GDDlg_ConditionFalse",
"language": "GDScript",
"path": "res://addons/gddlg/conditions/basic_logic/GDDlg_ConditionFalse.gd"
}, {
"base": "GDDlg_ConditionOr",
"class": "GDDlg_ConditionNor",
"language": "GDScript",
"path": "res://addons/gddlg/conditions/basic_logic/GDDlg_ConditionNor.gd"
}, {
"base": "GDDlg_ConditionBase",
"class": "GDDlg_ConditionNot",
"language": "GDScript",
"path": "res://addons/gddlg/conditions/basic_logic/GDDlg_ConditionNot.gd"
}, {
"base": "GDDlg_ConditionBase",
"class": "GDDlg_ConditionOr",
"language": "GDScript",
"path": "res://addons/gddlg/conditions/basic_logic/GDDlg_ConditionOr.gd"
}, {
"base": "Object",
"class": "GDDlg_DialogDefinition",
"language": "GDScript",
"path": "res://addons/gddlg/GDDlg_DialogDefinition.gd"
}, {
"base": "Node",
"class": "GDDlg_DialogPlayer",
"language": "GDScript",
"path": "res://addons/gddlg/GDDlg_DialogPlayer.gd"
}, {
"base": "Object",
"class": "GDInv_Inventory",
"language": "GDScript",
"path": "res://addons/gdinv/GDInv_Inventory.gd"
}, {
"base": "Object",
"class": "GDInv_ItemDefinition",
"language": "GDScript",
"path": "res://addons/gdinv/GDInv_ItemDefinition.gd"
}, {
"base": "Object",
"class": "GDInv_ItemStack",
"language": "GDScript",
"path": "res://addons/gdinv/GDInv_ItemStack.gd"
}, {
"base": "ColorRect",
"class": "GDQTransitionColor",
"language": "GDScript",
"path": "res://modules/Reusables/GDQTransitionColor.gd"
}, {
"base": "InspectorGadgetBase",
"class": "GadgetAABB",
"language": "GDScript",
"path": "res://addons/inspector-gadget/src/gadgets/gadget_aabb.gd"
}, {
"base": "InspectorGadgetBase",
"class": "GadgetBasis",
"language": "GDScript",
"path": "res://addons/inspector-gadget/src/gadgets/gadget_basis.gd"
}, {
"base": "InspectorGadgetBase",
"class": "GadgetBool",
"language": "GDScript",
"path": "res://addons/inspector-gadget/src/gadgets/gadget_bool.gd"
}, {
"base": "GadgetVector4",
"class": "GadgetColor",
"language": "GDScript",
"path": "res://addons/inspector-gadget/src/gadgets/gadget_vector4/gadget_color.gd"
}, {
"base": "InspectorGadgetBase",
"class": "GadgetFloat",
"language": "GDScript",
"path": "res://addons/inspector-gadget/src/gadgets/gadget_float.gd"
}, {
"base": "InspectorGadgetBase",
"class": "GadgetInt",
"language": "GDScript",
"path": "res://addons/inspector-gadget/src/gadgets/gadget_int.gd"
}, {
"base": "GadgetStringEdit",
"class": "GadgetNodePath",
"language": "GDScript",
"path": "res://addons/inspector-gadget/src/gadgets/gadget_node_path.gd"
}, {
"base": "GadgetVector4",
"class": "GadgetPlane",
"language": "GDScript",
"path": "res://addons/inspector-gadget/src/gadgets/gadget_vector4/gadget_plane.gd"
}, {
"base": "GadgetVector4",
"class": "GadgetQuat",
"language": "GDScript",
"path": "res://addons/inspector-gadget/src/gadgets/gadget_vector4/gadget_quat.gd"
}, {
"base": "GadgetStringEdit",
"class": "GadgetRID",
"language": "GDScript",
"path": "res://addons/inspector-gadget/src/gadgets/gadget_rid.gd"
}, {
"base": "InspectorGadgetBase",
"class": "GadgetRect2",
"language": "GDScript",
"path": "res://addons/inspector-gadget/src/gadgets/gadget_rect2.gd"
}, {
"base": "InspectorGadgetBase",
"class": "GadgetResource",
"language": "GDScript",
"path": "res://addons/inspector-gadget/src/gadgets/gadget_resource.gd"
}, {
"base": "InspectorGadgetBase",
"class": "GadgetStringEdit",
"language": "GDScript",
"path": "res://addons/inspector-gadget/src/gadgets/gadget_string_edit.gd"
}, {
"base": "InspectorGadgetBase",
"class": "GadgetStringLabel",
"language": "GDScript",
"path": "res://addons/inspector-gadget/src/gadgets/gadget_string_label.gd"
}, {
"base": "InspectorGadgetBase",
"class": "GadgetTransform",
"language": "GDScript",
"path": "res://addons/inspector-gadget/src/gadgets/gadget_transform.gd"
}, {
"base": "InspectorGadgetBase",
"class": "GadgetTransform2D",
"language": "GDScript",
"path": "res://addons/inspector-gadget/src/gadgets/gadget_transform2d.gd"
}, {
"base": "InspectorGadgetBase",
"class": "GadgetVector2",
"language": "GDScript",
"path": "res://addons/inspector-gadget/src/gadgets/gadget_vector2.gd"
}, {
"base": "InspectorGadgetBase",
"class": "GadgetVector3",
"language": "GDScript",
"path": "res://addons/inspector-gadget/src/gadgets/gadget_vector3.gd"
}, {
"base": "InspectorGadgetBase",
"class": "GadgetVector4",
"language": "GDScript",
"path": "res://addons/inspector-gadget/src/gadgets/gadget_vector4.gd"
}, {
"base": "BaseGameObject",
"class": "GameObject",
"language": "GDScript",
"path": "res://addons/gcs/gameObject.gd"
}, {
"base": "BaseGameSystem",
"class": "GameSystem",
"language": "GDScript",
"path": "res://addons/gcs/gameSystem.gd"
}, {
"base": "BaseGameWorld",
"class": "GameWorld",
"language": "GDScript",
"path": "res://addons/gcs/gameWorld.gd"
}, {
"base": "Reference",
"class": "GaussianRandom",
"language": "GDScript",
"path": "res://Scripts/ExtraImportAsset/GaussianRandom.gd"
}, {
"base": "TextureRect",
"class": "GeneralistInfiniBGScroll",
"language": "GDScript",
"path": "res://modules/Reusables/InfiniBGScroll.gd"
}, {
"base": "CollisionShape2D",
"class": "Geometry2D",
"language": "GDScript",
"path": "res://addons/godot-next/2d/geometry_2d.gd"
}, {
"base": "PanelContainer",
"class": "GistItem",
"language": "GDScript",
"path": "res://addons/github-integration/scripts/GistItem.gd"
}, {
"base": "HTTPRequest",
"class": "GoogleTranslateAPI",
"language": "GDScript",
"path": "res://addons/file-editor/scripts/GoogleTranslatorAPI.gd"
}, {
"base": "ResourceFormatLoader",
"class": "HTerrainDataLoader",
"language": "GDScript",
"path": "res://addons/zylann.hterrain/hterrain_resource_loader.gd"
}, {
"base": "ResourceFormatSaver",
"class": "HTerrainDataSaver",
"language": "GDScript",
"path": "res://addons/zylann.hterrain/hterrain_resource_saver.gd"
}, {
"base": "KinematicBody",
"class": "HeroicPlayer",
"language": "GDScript",
"path": "res://GameDVDCardtridge/ManOfCoyote/ProsotipePlatformerGuy.gd"
}, {
"base": "Reference",
"class": "Icons",
"language": "GDScript",
"path": "res://addons/godot-next/singletons/icons.gd"
}, {
"base": "Reference",
"class": "Inflector",
"language": "GDScript",
"path": "res://addons/godot-next/references/inflector.gd"
}, {
"base": "InputEventAction",
"class": "InputEventMultiScreenDrag",
"language": "GDScript",
"path": "res://CustomInputEvents/InputEventMultiScreenDrag.gd"
}, {
"base": "InputEventAction",
"class": "InputEventScreenPinch",
"language": "GDScript",
"path": "res://CustomInputEvents/InputEventScreenPinch.gd"
}, {
"base": "InputEventAction",
"class": "InputEventScreenTwist",
"language": "GDScript",
"path": "res://CustomInputEvents/InputEventScreenTwist.gd"
}, {
"base": "InputEventAction",
"class": "InputEventSingleScreenDrag",
"language": "GDScript",
"path": "res://CustomInputEvents/InputEventSingleScreenDrag.gd"
}, {
"base": "InputEventAction",
"class": "InputEventSingleScreenTap",
"language": "GDScript",
"path": "res://CustomInputEvents/InputEventSingleScreenTap.gd"
}, {
"base": "InputEventAction",
"class": "InputEventSingleScreenTouch",
"language": "GDScript",
"path": "res://CustomInputEvents/InputEventSingleScreenTouch.gd"
}, {
"base": "Reference",
"class": "InspectorControls",
"language": "GDScript",
"path": "res://addons/godot-next/global/inspector_controls.gd"
}, {
"base": "InspectorGadgetBase",
"class": "InspectorGadget",
"language": "GDScript",
"path": "res://addons/inspector-gadget/src/inspector_gadget.gd"
}, {
"base": "MarginContainer",
"class": "InspectorGadgetBase",
"language": "GDScript",
"path": "res://addons/inspector-gadget/src/inspector_gadget_base.gd"
}, {
"base": "Reference",
"class": "InspectorGadgetUtil",
"language": "GDScript",
"path": "res://addons/inspector-gadget/src/inspector_gadget_util.gd"
}, {
"base": "StaticBody",
"class": "InteractMe",
"language": "GDScript",
"path": "res://GameDVDCardtridge/TemplateHexagonEngine/LevelCardtridge/JustAMellinda/InteractThisA.gd"
}, {
"base": "HBoxContainer",
"class": "InvitationItem",
"language": "GDScript",
"path": "res://addons/github-integration/scripts/InvitationItem.gd"
}, {
"base": "Control",
"class": "IsoCube",
"language": "GDScript",
"path": "res://addons/IsoCube/IsoCube.gd"
}, {
"base": "Reference",
"class": "JSONBeautifier",
"language": "GDScript",
"path": "res://addons/json_beautifier/json_beautifier.gd"
}, {
"base": "Control",
"class": "Joystick",
"language": "GDScript",
"path": "res://addons/MarcoFazio-VirtualJoystick/Joystick/Joystick.gd"
}, {
"base": "VBoxContainer",
"class": "LegendElement",
"language": "GDScript",
"path": "res://addons/easy_charts/Utilities/Legend/function_legend.gd"
}, {
"base": "ScatterChartBase",
"class": "LineChart",
"language": "GDScript",
"path": "res://addons/easy_charts/LineChart/line_chart.gd"
}, {
"base": "Chart2D",
"class": "LineChart2D",
"language": "GDScript",
"path": "res://addons/easy_charts/LineChart2D/line_chart2D.gd"
}, {
"base": "Reference",
"class": "Matrix",
"language": "GDScript",
"path": "res://addons/easy_charts/Utilities/Data/matrix.gd"
}, {
"base": "Reference",
"class": "MatrixGenerator",
"language": "GDScript",
"path": "res://addons/easy_charts/Utilities/Data/matrix_generator.gd"
}, {
"base": "Reference",
"class": "MessageDispatcher",
"language": "GDScript",
"path": "res://addons/godot-next/references/message_dispatcher.gd"
}, {
"base": "Node",
"class": "MessageDispatcherWrapper",
"language": "GDScript",
"path": "res://addons/godot-next/nodes/message_dispatcher_wrapper.gd"
}, {
"base": "DocItem",
"class": "MethodDocItem",
"language": "GDScript",
"path": "res://addons/silicon.util.custom_docs/doc_item/method_doc_item.gd"
}, {
"base": "Node",
"class": "MidiPlayer",
"language": "GDScript",
"path": "res://addons/midi/MidiPlayer.gd"
}, {
"base": "Resource",
"class": "MixMode",
"language": "GDScript",
"path": "res://addons/modifiers/mix_mode.gd"
}, {
"base": "Resource",
"class": "MixModesCollection",
"language": "GDScript",
"path": "res://addons/modifiers/mix_modes_collection.gd"
}, {
"base": "Node",
"class": "Modifiers",
"language": "GDScript",
"path": "res://addons/modifiers/modifiers.gd"
}, {
"base": "Resource",
"class": "PhysicsLayers",
"language": "GDScript",
"path": "res://addons/godot-next/global/physics_layers.gd"
}, {
"base": "Chart",
"class": "PieChart",
"language": "GDScript",
"path": "res://addons/easy_charts/PieChart/pie_chart.gd"
}, {
"base": "KinematicBody2D",
"class": "Player",
"language": "GDScript",
"path": "res://examples/MarcoFazio-VirtualJoysticker/Test/Player.gd"
}, {
"base": "Control",
"class": "Point",
"language": "GDScript",
"path": "res://addons/easy_charts/Utilities/Point/Point.gd"
}, {
"base": "PanelContainer",
"class": "PointData",
"language": "GDScript",
"path": "res://addons/easy_charts/Utilities/Point/point_data.gd"
}, {
"base": "Reference",
"class": "PoissonDiscSampling",
"language": "GDScript",
"path": "res://addons/PoissonDiscSampling/PoissonDiscSampling.gd"
}, {
"base": "Reference",
"class": "PooledObject2D",
"language": "GDScript",
"path": "res://addons/jm_game_template/jm_pooled_object_2D.gd"
}, {
"base": "Reference",
"class": "ProjectTools",
"language": "GDScript",
"path": "res://addons/godot-next/global/project_tools.gd"
}, {
"base": "DocItem",
"class": "PropertyDocItem",
"language": "GDScript",
"path": "res://addons/silicon.util.custom_docs/doc_item/property_doc_item.gd"
}, {
"base": "Reference",
"class": "PropertyInfo",
"language": "GDScript",
"path": "res://addons/godot-next/references/property_info.gd"
}, {
"base": "Node2D",
"class": "RMSmartShape2D",
"language": "GDScript",
"path": "res://addons/rmsmartshape/RMSmartShape2D.gd"
}, {
"base": "Node2D",
"class": "RMSmartShapeAnchor2D",
"language": "GDScript",
"path": "res://addons/rmsmartshape/RMSmartShapeAnchor2D.gd"
}, {
"base": "Resource",
"class": "RMSmartShapeMaterial",
"language": "GDScript",
"path": "res://addons/rmsmartshape/RMSmartShapeMaterial.gd"
}, {
"base": "Chart",
"class": "RadarChart",
"language": "GDScript",
"path": "res://addons/easy_charts/RadarChart/radar_chart.gd"
}, {
"base": "Node",
"class": "RandomSound",
"language": "GDScript",
"path": "res://addons/RandomSound/RandomSound.gd"
}, {
"base": "ResourceCollection",
"class": "ResourceArray",
"language": "GDScript",
"path": "res://addons/godot-next/resources/resource_collections/resource_array.gd"
}, {
"base": "Resource",
"class": "ResourceCollection",
"language": "GDScript",
"path": "res://addons/godot-next/resources/resource_collections/resource_collection.gd"
}, {
"base": "ResourceCollection",
"class": "ResourceSet",
"language": "GDScript",
"path": "res://addons/godot-next/resources/resource_collections/resource_set.gd"
}, {
"base": "Reference",
"class": "SMF",
"language": "GDScript",
"path": "res://addons/midi/SMF.gd"
}, {
"base": "Reference",
"class": "SaverLoader",
"language": "GDScript",
"path": "res://Scripts/ExtraImportAsset/Procedural Saver Loader/saver_loader.gd"
}, {
"base": "ScatterChartBase",
"class": "ScatterChart",
"language": "GDScript",
"path": "res://addons/easy_charts/ScatterChart/scatter_chart.gd"
}, {
"base": "Chart2D",
"class": "ScatterChart2D",
"language": "GDScript",
"path": "res://addons/easy_charts/ScatterChart2D/scatter_chart2D.gd"
}, {
"base": "Spatial",
"class": "ScatterChart3D",
"language": "GDScript",
"path": "res://addons/easy_charts/ScatterChart3D/scatter_chart3D.gd"
}, {
"base": "Chart",
"class": "ScatterChartBase",
"language": "GDScript",
"path": "res://addons/easy_charts/Utilities/Scripts/scatter_chart_base.gd"
}, {
"base": "Node",
"class": "ServerAdvertiser",
"language": "GDScript",
"path": "res://addons/LANServerBroadcast/server_advertiser/ServerAdvertiser.gd"
}, {
"base": "Node",
"class": "ServerListener",
"language": "GDScript",
"path": "res://addons/LANServerBroadcast/server_listener/ServerListener.gd"
}, {
"base": "DocItem",
"class": "SignalDocItem",
"language": "GDScript",
"path": "res://addons/silicon.util.custom_docs/doc_item/signal_doc_item.gd"
}, {
"base": "Reference",
"class": "Singletons",
"language": "GDScript",
"path": "res://addons/godot-next/global/singletons.gd"
}, {
"base": "Reference",
"class": "Slice",
"language": "GDScript",
"path": "res://addons/easy_charts/Utilities/Slice/slice.gd"
}, {
"base": "RigidBody2D",
"class": "Sliceable2D",
"language": "GDScript",
"path": "res://Scripts/ExtraImportAsset/Sliceable2D.gd"
}, {
"base": "Node2D",
"class": "Slicer2D",
"language": "GDScript",
"path": "res://Scripts/ExtraImportAsset/Slicer2D.gd"
}, {
"base": "AudioStreamPlayer3D",
"class": "SmartAudioStream",
"language": "GDScript",
"path": "res://addons/smart_audio_stream/SmartAudioStream.gd"
}, {
"base": "Reference",
"class": "SoundFont",
"language": "GDScript",
"path": "res://addons/midi/SoundFont.gd"
}, {
"base": "Node",
"class": "SoundManager_Pluggits",
"language": "GDScript",
"path": "res://addons/sound_manager/module/internal_scripts/SoundManager_config.gd"
}, {
"base": "ReferenceRect",
"class": "SpriteText",
"language": "GDScript",
"path": "res://Scripts/ExtraImportAsset/SpriteTextScript/SpriteText.gd"
}, {
"base": "Reference",
"class": "StorageReference",
"language": "GDScript",
"path": "res://addons/godot-firebase/storage/storage_reference.gd"
}, {
"base": "Reference",
"class": "StorageTask",
"language": "GDScript",
"path": "res://addons/godot-firebase/storage/storage_task.gd"
}, {
"base": "Reference",
"class": "SubscriptionList",
"language": "GDScript",
"path": "res://addons/jm_game_template/jm_subscription_list.gd"
}, {
"base": "Node",
"class": "Tello",
"language": "GDScript",
"path": "res://addons/TelloDroneNode/TelloDroneNode.gd"
}, {
"base": "Spatial",
"class": "TextureLayeredMesh",
"language": "GDScript",
"path": "res://addons/texture-layered-mesh/src/texture_layered_mesh.gd"
}, {
"base": "Control",
"class": "Toast",
"language": "GDScript",
"path": "res://addons/toast/toast_script.gd"
}, {
"base": "Resource",
"class": "ToastStyle",
"language": "GDScript",
"path": "res://addons/toast/style_resource/toast_style.gd"
}, {
"base": "Line2D",
"class": "Trail2D",
"language": "GDScript",
"path": "res://addons/godot-next/2d/trail_2d.gd"
}, {
"base": "ImmediateGeometry",
"class": "Trail3D",
"language": "GDScript",
"path": "res://addons/godot-next/3d/trail_3d.gd"
}, {
"base": "Reference",
"class": "TweenSequence",
"language": "GDScript",
"path": "res://addons/godot-next/references/tween_sequence.gd"
}, {
"base": "Object",
"class": "TypeFormattingLogic",
"language": "GDScript",
"path": "res://addons/metadata_inspector/TypeFormattingLogic.gd"
}, {
"base": "VBoxContainer",
"class": "VBoxItemList",
"language": "GDScript",
"path": "res://addons/godot-next/gui/v_box_item_list.gd"
}, {
"base": "Node",
"class": "VMF",
"language": "GDScript",
"path": "res://addons/vmflib/VMF.gd"
}, {
"base": "Reference",
"class": "Variant",
"language": "GDScript",
"path": "res://addons/godot-next/global/variant.gd"
}, {
"base": "Resource",
"class": "VectorResource",
"language": "GDScript",
"path": "res://addons/vector_resource/vector_resource.gd"
}, {
"base": "Reference",
"class": "WAT",
"language": "GDScript",
"path": "res://addons/WAT/runner/namespace.gd"
}, {
"base": "Node",
"class": "WATTest",
"language": "GDScript",
"path": "res://addons/WAT/runner/test.gd"
} ]
_global_script_class_icons={
"AdMob": "res://admob-lib/icon.png",
"ArgumentDocItem": "",
"Array2D": "",
"ArrayUtils": "",
"AudioStreamPlayerADSR": "",
"Bank": "",
"BaseGameObject": "",
"BaseGameSystem": "",
"BaseGameWorld": "",
"BeatPlayer": "",
"Behavior": "",
"BitFlag": "",
"CSVEditor": "",
"CSVFile": "",
"CallbackDelegator": "",
"Chart": "",
"Chart2D": "",
"ClassDocItem": "",
"ClassType": "",
"Colorblindness": "",
"ColumnChart": "",
"ColumnChart2D": "",
"Component": "",
"ConstantDocItem": "",
"ContributorClass": "",
"Cycle": "res://addons/godot-next/icons/icon_cycle.svg",
"DataFrame": "",
"DebugLabel": "",
"Dialogic": "",
"DialogicUtil": "",
"DiscreteGradientTexture": "",
"DocExporter": "",
"DocItem": "",
"EditorTools": "",
"FLMusicLib": "",
"FastText": "",
"FastTextInit": "",
"FileSearch": "",
"FileSystemLink": "",
"FirebaseAuth": "",
"FirebaseDatabase": "",
"FirebaseDatabaseReference": "",
"FirebaseDatabaseStore": "",
"FirebaseDynamicLinks": "",
"FirebaseFirestore": "",
"FirebaseResource": "",
"FirebaseStorage": "",
"FirebaseUserData": "",
"FirestoreCollection": "",
"FirestoreDocument": "",
"FirestoreQuery": "",
"FirestoreTask": "",
"FpsLabel": "",
"FsmState": "",
"GDDlg_AttributeArray": "",
"GDDlg_AttributeBase": "",
"GDDlg_AttributeBool": "",
"GDDlg_AttributeInteger": "",
"GDDlg_AttributeMap": "",
"GDDlg_AttributeString": "",
"GDDlg_ConditionAnd": "",
"GDDlg_ConditionBase": "",
"GDDlg_ConditionFalse": "",
"GDDlg_ConditionNor": "",
"GDDlg_ConditionNot": "",
"GDDlg_ConditionOr": "",
"GDDlg_DialogDefinition": "",
"GDDlg_DialogPlayer": "",
"GDInv_Inventory": "",
"GDInv_ItemDefinition": "",
"GDInv_ItemStack": "",
"GDQTransitionColor": "res://modules/ShadeMask/GDQuestShadeMask/shards.png",
"GadgetAABB": "",
"GadgetBasis": "",
"GadgetBool": "",
"GadgetColor": "",
"GadgetFloat": "",
"GadgetInt": "",
"GadgetNodePath": "",
"GadgetPlane": "",
"GadgetQuat": "",
"GadgetRID": "",
"GadgetRect2": "",
"GadgetResource": "",
"GadgetStringEdit": "",
"GadgetStringLabel": "",
"GadgetTransform": "",
"GadgetTransform2D": "",
"GadgetVector2": "",
"GadgetVector3": "",
"GadgetVector4": "",
"GameObject": "",
"GameSystem": "",
"GameWorld": "",
"GaussianRandom": "",
"GeneralistInfiniBGScroll": "",
"Geometry2D": "",
"GistItem": "",
"GoogleTranslateAPI": "",
"HTerrainDataLoader": "",
"HTerrainDataSaver": "",
"HeroicPlayer": "",
"Icons": "",
"Inflector": "",
"InputEventMultiScreenDrag": "",
"InputEventScreenPinch": "",
"InputEventScreenTwist": "",
"InputEventSingleScreenDrag": "",
"InputEventSingleScreenTap": "",
"InputEventSingleScreenTouch": "",
"InspectorControls": "",
"InspectorGadget": "",
"InspectorGadgetBase": "",
"InspectorGadgetUtil": "",
"InteractMe": "",
"InvitationItem": "",
"IsoCube": "",
"JSONBeautifier": "",
"Joystick": "res://addons/MarcoFazio-VirtualJoystick/preview_icon.png",
"LegendElement": "",
"LineChart": "",
"LineChart2D": "",
"Matrix": "",
"MatrixGenerator": "",
"MessageDispatcher": "",
"MessageDispatcherWrapper": "",
"MethodDocItem": "",
"MidiPlayer": "",
"MixMode": "res://addons/modifiers/icon_modifiers.svg",
"MixModesCollection": "res://addons/modifiers/icon_modifiers.svg",
"Modifiers": "res://addons/modifiers/icon_modifiers.svg",
"PhysicsLayers": "",
"PieChart": "",
"Player": "",
"Point": "",
"PointData": "",
"PoissonDiscSampling": "",
"PooledObject2D": "",
"ProjectTools": "",
"PropertyDocItem": "",
"PropertyInfo": "",
"RMSmartShape2D": "res://addons/rmsmartshape/shape.png",
"RMSmartShapeAnchor2D": "res://addons/rmsmartshape/shape_anchor.png",
"RMSmartShapeMaterial": "",
"RadarChart": "",
"RandomSound": "res://addons/RandomSound/icon_random_sound.svg",
"ResourceArray": "",
"ResourceCollection": "",
"ResourceSet": "",
"SMF": "",
"SaverLoader": "",
"ScatterChart": "",
"ScatterChart2D": "",
"ScatterChart3D": "",
"ScatterChartBase": "",
"ServerAdvertiser": "res://addons/LANServerBroadcast/server_advertiser/ServerAdvertiser.png",
"ServerListener": "res://addons/LANServerBroadcast/server_listener/ServerListener.png",
"SignalDocItem": "",
"Singletons": "",
"Slice": "",
"Sliceable2D": "",
"Slicer2D": "",
"SmartAudioStream": "",
"SoundFont": "",
"SoundManager_Pluggits": "",
"SpriteText": "",
"StorageReference": "",
"StorageTask": "",
"SubscriptionList": "",
"Tello": "res://addons/TelloDroneNode/drone_icon.png",
"TextureLayeredMesh": "res://addons/texture-layered-mesh/icons/texture_layered_mesh.svg",
"Toast": "",
"ToastStyle": "",
"Trail2D": "res://addons/godot-next/icons/icon_trail_2d.svg",
"Trail3D": "res://addons/godot-next/icons/icon_trail_3d.svg",
"TweenSequence": "",
"TypeFormattingLogic": "",
"VBoxItemList": "res://addons/godot-next/icons/icon_v_box_item_list.svg",
"VMF": "",
"Variant": "",
"VectorResource": "",
"WAT": "",
"WATTest": ""
}

[Google]

Firebase/ApiKey="AIzaSyDtTuVW5h-ehAj9E0v-hL64Lpnva395ZL8"
Firebase/AutoDomain="hexagon-engine.firebaseapp.com"
Firebase/DatabaseUrl="https://hexagon-engine.firebaseio.com"
Firebase/ProjectId="hexagon-engine"
Firebase/StorageBucket="hexagon-engine.appspot.com"
Firebase/MessagingSenderId="1058646999710"
Firebase/AppId="1:1058646999710:web:61990d2eeca7053c64718f"
Firebase/MeasurementId="G-9K4LW2G9JW"

[PluginSettings]

gddlg/DialogJsonPaths=PoolStringArray( "res://Datas/Totaling/GDDialog/" )
gddlg/LoadOnReady=true
gddlg/StrictDialogAttributes=false
gddlg/StrictOptionAttributes=false
gdinv/ItemJsonPaths=PoolStringArray( "res://Datas/Totaling/GDInventory/" )
gdinv/LoadOnReady=true

[WAT]

Test_Directory="res://Datas/Totaling/WAT-Tests"

[addons]

quick_scenes/selected_scene=-1
quick_scenes/quick_run_shortcut=Object(InputEventKey,"resource_local_to_scene":false,"resource_name":"","device":0,"alt":false,"shift":false,"control":false,"meta":false,"command":false,"pressed":true,"scancode":16777252,"unicode":0,"echo":false,"script":null)

quick_scenes/scene_list=PoolStringArray( "res://DummyTest/firebasetonl.tscn" )

[android]

modules="org/godotengine/godot/Vibration"

[application]

config/name="HexagonEngine"
config/description="Cinema enters game console"
run/main_scene="res://HexagonEngineCore.tscn"
config/use_custom_user_dir=true
config/custom_user_dir_name="Perkedel Technologies/Hexagon Engine"
boot_splash/image="res://Sprites/HexagonEngineBootSplash - Whait.png"
boot_splash/bg_color=Color( 0, 0, 0.25098, 1 )
config/icon="res://Sprites/HexagonEngineSign.png"
config/windows_native_icon="res://Sprites/HexagonEngineSign.ico"
config/auto_accept_quit=false
config/quit_on_go_back=false

[autoload]

Singletoner="*res://Scripts/Singletoner.gd"
Settingers="*res://Scripts/Settingers.gd"
Kixlonzing="*res://Scripts/Kixlonzing.gd"
UserData="*res://addons/github-integration/scripts/user_data.gd"
IconLoaderGithub="*res://addons/github-integration/scripts/IconLoaderGithub.gd"
SoundManager="*res://addons/sound_manager/module/SoundManager.tscn"
SceneLoader="*res://Scripts/ExtraImportAsset/SceneLoader.gd"
AES="*res://Scripts/ExtraImportAsset/AES.gd"
GDBehavior="*res://addons/GDBehavior/GDBehavior.gd"
GDInv_ItemDB="*res://addons/gdinv/GDInv_ItemDB.gd"
GDDlg_DialogDB="*res://addons/gddlg/GDDlg_DialogDB.gd"
RestHandler="*res://addons/github-integration/scenes/RestHandler.tscn"
NoteValue="*res://addons/SimpleSampler/note_value.gd"
IconLoader="*res://addons/file-editor/scripts/IconLoader.gd"
LastOpenedFiles="*res://addons/file-editor/scripts/LastOpenedFiles.gd"
AutoSpeaker="*res://Scripts/AutoSpeaker.gd"
Firebase="*res://addons/godot-firebase/firebase/firebase.tscn"
FirebaseQuest="*res://Scripts/GDquest-Firebase.gd"
ModPckLoader="*res://Scripts/ModPCKLoader.gd"
DauMainLooper="*res://Scripts/DauMainLooper.gd"
GUI="*res://addons/godot-immediate-gui/GUI.gd"
PluginSettings="*res://addons/github-integration/scripts/PluginSettings.gd"
AdvancedBackgroundLoader="*res://addons/Advanced Background Loader/background_load.gd"
Utilities="*res://addons/easy_charts/Utilities/Scripts/utilities.gd"

[compression]

formats/zstd/long_distance_matching=true
formats/zstd/compression_level=22
formats/zstd/window_log_size=30
formats/zlib/compression_level=9
formats/gzip/compression_level=9

[debug]

settings/crash_handler/message="OH PECK!!! WHY?! OH.. we're sorry this happened. Not what we expect. Please include this when reporting the bug on https://github.com/Perkedel/HexagonEngine/issues"
settings/stdout/verbose_stdout=true
gdscript/completion/autocomplete_setters_and_getters=true

[display]

window/size/width=1920
window/size/height=1080
window/dpi/allow_hidpi=true
window/per_pixel_transparency/enabled=true
mouse_cursor/custom_image="res://Sprites/GameCursorVacuumSkollNano.png"
mouse_cursor/tooltip_position_offset=Vector2( 30, 30 )
window/stretch/mode="2d"
window/stretch/aspect="expand"
window/per_pixel_transparency/splash=true

[editor_plugins]

enabled=PoolStringArray( "Advanced Background Loader", "AudioEffectInspector", "Extended Kinematic Body", "Flare", "FontAwesome5", "GDBehavior", "KOBUGE-games.CircularContainer", "LANServerBroadcast", "QuickSceneRunner", "SIsilicon.3d.text", "SimpleSampler", "SyndiBox", "TelloDroneNode", "WAT", "alanscodelog.gimbalcontrol", "animated_grid_container_plugin", "arabic-text", "balloon", "beatplayer", "bone_gizmo", "camera_limiter", "decals", "destruction", "dialogic", "easy_charts", "editor_icon_previewer", "editor_physics", "explore-editor-theme", "extend", "file-editor", "folder_node", "gcode", "gddlg", "gdinv", "github-integration", "godot-firebase", "godot-git-control.funabab", "godot-inheritance-dock", "godot-kra-psd-importer", "godot-next", "godot-plugin-refresher", "godot-sqlite", "godot-stopwatch-master", "godot_piskel_importer", "godot_pixelorama_importer", "godot_sheets", "google_sheet", "goutte.camera.trackball", "http-sse-client", "inspector-gadget", "jm_game_template", "jm_pp_outlines", "joystick_control", "material_maker", "metadata_inspector", "midi", "mixing-desk", "modifiers", "ni_mate_motion_capture", "notes_tab", "opus", "orbit_camera", "paulloz.colorblindness", "perkedeltestmakeplugin", "pigmint_controls", "plugin_maker", "radial_progress", "randomAudioStreamPlayer", "repl", "replicator", "rmsmartshape", "scale_importer", "sketchfab", "smart_audio_stream", "smoothing", "snippets_plugin", "sound_manager", "sprite-baker", "string_keys", "terminal", "tile_spawner", "toast", "vector_resource", "voxel_factory", "vpainter", "wakatime", "water2d", "zylann.editor_light", "zylann.hterrain", "zylann.sdf_blender", "zylann.translation_editor" )

[firebase]

environment_variables/apiKey="AIzaSyDtTuVW5h-ehAj9E0v-hL64Lpnva395ZL8"
environment_variables/authDomain="hexagon-engine.firebaseapp.com"
environment_variables/databaseURL="https://hexagon-engine.firebaseio.com"
environment_variables/projectId="hexagon-engine"
environment_variables/storageBucket="hexagon-engine.appspot.com"
environment_variables/messagingSenderId="1058646999710"
environment_variables/appId="1:1058646999710:web:61990d2eeca7053c64718f"
environment_variables/measurementId="G-9K4LW2G9JW"
environment_variables/clientId="1058646999710-tm01bbpge56uiabgpodvpk98i1iddvas.apps.googleusercontent.com"
environment_variables/clientSecret="FY3272m2sEiUniJXT-y7LuRC"

[gdnative]

singletons=[ "res://addons/godot-oculus/godot_oculus.gdnlib", "res://addons/godot-openvr/godot_openvr.gdnlib", "res://addons/godot-openxr/godot_openxr.gdnlib", "res://addons/godot_ovrmobile/godot_ovrmobile.gdnlib" ]
singletons_disabled=[ "res://addons/godot-oculus/godot_oculus.gdnlib", "res://addons/godot_ovrmobile/godot_ovrmobile.gdnlib", "res://addons/godot-openvr/godot_openvr.gdnlib" ]

[gui]

theme/use_hidpi=true
theme/custom="res://Theme/Perkedel_Tema.tres"
theme/custom_font="res://fonts/Built/Ubuntu_R_16tred.tres"

[input]

ui_mouse_right={
"deadzone": 0.5,
"events": [ Object(InputEventMouseButton,"resource_local_to_scene":false,"resource_name":"","device":0,"alt":false,"shift":false,"control":false,"meta":false,"command":false,"button_mask":0,"position":Vector2( 0, 0 ),"global_position":Vector2( 0, 0 ),"factor":1.0,"button_index":2,"pressed":false,"doubleclick":false,"script":null)
 ]
}
ui_mouse_left={
"deadzone": 0.5,
"events": [ Object(InputEventMouseButton,"resource_local_to_scene":false,"resource_name":"","device":0,"alt":false,"shift":false,"control":false,"meta":false,"command":false,"button_mask":0,"position":Vector2( 0, 0 ),"global_position":Vector2( 0, 0 ),"factor":1.0,"button_index":1,"pressed":false,"doubleclick":false,"script":null)
 ]
}
Loncat={
"deadzone": 0.5,
"events": [ Object(InputEventJoypadButton,"resource_local_to_scene":false,"resource_name":"","device":0,"button_index":0,"pressure":0.0,"pressed":false,"script":null)
 ]
}
Serang={
"deadzone": 0.5,
"events": [ Object(InputEventJoypadButton,"resource_local_to_scene":false,"resource_name":"","device":0,"button_index":2,"pressure":0.0,"pressed":false,"script":null)
 ]
}
Pindai={
"deadzone": 0.5,
"events": [ Object(InputEventJoypadButton,"resource_local_to_scene":false,"resource_name":"","device":0,"button_index":3,"pressure":0.0,"pressed":false,"script":null)
 ]
}
Jongkok={
"deadzone": 0.5,
"events": [ Object(InputEventJoypadButton,"resource_local_to_scene":false,"resource_name":"","device":0,"button_index":1,"pressure":0.0,"pressed":false,"script":null)
 ]
}
AnalogKiri_x={
"deadzone": 0.5,
"events": [ Object(InputEventKey,"resource_local_to_scene":false,"resource_name":"","device":0,"alt":false,"shift":false,"control":false,"meta":false,"command":false,"pressed":false,"scancode":68,"unicode":0,"echo":false,"script":null)
, Object(InputEventJoypadMotion,"resource_local_to_scene":false,"resource_name":"","device":0,"axis":0,"axis_value":1.0,"script":null)
 ]
}
AnalogKiri_x-={
"deadzone": 0.15,
"events": [ Object(InputEventJoypadMotion,"resource_local_to_scene":false,"resource_name":"","device":0,"axis":0,"axis_value":-1.0,"script":null)
, Object(InputEventKey,"resource_local_to_scene":false,"resource_name":"","device":0,"alt":false,"shift":false,"control":false,"meta":false,"command":false,"pressed":false,"scancode":65,"unicode":0,"echo":false,"script":null)
 ]
}
AnalogKiri_y={
"deadzone": 0.15,
"events": [ Object(InputEventJoypadMotion,"resource_local_to_scene":false,"resource_name":"","device":0,"axis":1,"axis_value":-1.0,"script":null)
, Object(InputEventKey,"resource_local_to_scene":false,"resource_name":"","device":0,"alt":false,"shift":false,"control":false,"meta":false,"command":false,"pressed":false,"scancode":87,"unicode":0,"echo":false,"script":null)
 ]
}
AnalogKiri_y-={
"deadzone": 0.15,
"events": [ Object(InputEventJoypadMotion,"resource_local_to_scene":false,"resource_name":"","device":0,"axis":1,"axis_value":1.0,"script":null)
, Object(InputEventKey,"resource_local_to_scene":false,"resource_name":"","device":0,"alt":false,"shift":false,"control":false,"meta":false,"command":false,"pressed":false,"scancode":83,"unicode":0,"echo":false,"script":null)
 ]
}
AnalogKanan_x={
"deadzone": 0.15,
"events": [ Object(InputEventJoypadMotion,"resource_local_to_scene":false,"resource_name":"","device":0,"axis":2,"axis_value":1.0,"script":null)
 ]
}
AnalogKanan_x-={
"deadzone": 0.15,
"events": [ Object(InputEventJoypadMotion,"resource_local_to_scene":false,"resource_name":"","device":0,"axis":2,"axis_value":-1.0,"script":null)
 ]
}
AnalogKanan_y={
"deadzone": 0.15,
"events": [ Object(InputEventJoypadMotion,"resource_local_to_scene":false,"resource_name":"","device":0,"axis":3,"axis_value":-1.0,"script":null)
 ]
}
AnalogKanan_y-={
"deadzone": 0.15,
"events": [ Object(InputEventJoypadMotion,"resource_local_to_scene":false,"resource_name":"","device":0,"axis":3,"axis_value":1.0,"script":null)
 ]
}
TembakKiri={
"deadzone": 0.0,
"events": [ Object(InputEventJoypadMotion,"resource_local_to_scene":false,"resource_name":"","device":0,"axis":6,"axis_value":1.0,"script":null)
 ]
}
TembakKanan={
"deadzone": 0.0,
"events": [ Object(InputEventJoypadMotion,"resource_local_to_scene":false,"resource_name":"","device":0,"axis":7,"axis_value":1.0,"script":null)
 ]
}
DaftarPauso={
"deadzone": 0.5,
"events": [ Object(InputEventJoypadButton,"resource_local_to_scene":false,"resource_name":"","device":0,"button_index":11,"pressure":0.0,"pressed":false,"script":null)
, Object(InputEventKey,"resource_local_to_scene":false,"resource_name":"","device":0,"alt":false,"shift":false,"control":false,"meta":false,"command":false,"pressed":false,"scancode":16777217,"unicode":0,"echo":false,"script":null)
 ]
}
EscapeButton={
"deadzone": 0.5,
"events": [ Object(InputEventKey,"resource_local_to_scene":false,"resource_name":"","device":0,"alt":false,"shift":false,"control":false,"meta":false,"command":false,"pressed":false,"scancode":16777217,"unicode":0,"echo":false,"script":null)
 ]
}
clic_kiri={
"deadzone": 0.5,
"events": [ Object(InputEventMouseButton,"resource_local_to_scene":false,"resource_name":"","device":0,"alt":false,"shift":false,"control":false,"meta":false,"command":false,"button_mask":0,"position":Vector2( 0, 0 ),"global_position":Vector2( 0, 0 ),"factor":1.0,"button_index":1,"pressed":false,"doubleclick":false,"script":null)
 ]
}
clic_kanan={
"deadzone": 0.5,
"events": [ Object(InputEventMouseButton,"resource_local_to_scene":false,"resource_name":"","device":0,"alt":false,"shift":false,"control":false,"meta":false,"command":false,"button_mask":0,"position":Vector2( 0, 0 ),"global_position":Vector2( 0, 0 ),"factor":1.0,"button_index":2,"pressed":false,"doubleclick":false,"script":null)
 ]
}
Jalan_Depan={
"deadzone": 0.5,
"events": [ Object(InputEventKey,"resource_local_to_scene":false,"resource_name":"","device":0,"alt":false,"shift":false,"control":false,"meta":false,"command":false,"pressed":false,"scancode":87,"unicode":0,"echo":false,"script":null)
, Object(InputEventJoypadMotion,"resource_local_to_scene":false,"resource_name":"","device":0,"axis":1,"axis_value":-1.0,"script":null)
 ]
}
Jalan_Belakang={
"deadzone": 0.5,
"events": [ Object(InputEventKey,"resource_local_to_scene":false,"resource_name":"","device":0,"alt":false,"shift":false,"control":false,"meta":false,"command":false,"pressed":false,"scancode":83,"unicode":0,"echo":false,"script":null)
, Object(InputEventJoypadMotion,"resource_local_to_scene":false,"resource_name":"","device":0,"axis":1,"axis_value":1.0,"script":null)
 ]
}
Jalan_Kiri={
"deadzone": 0.5,
"events": [ Object(InputEventKey,"resource_local_to_scene":false,"resource_name":"","device":0,"alt":false,"shift":false,"control":false,"meta":false,"command":false,"pressed":false,"scancode":65,"unicode":0,"echo":false,"script":null)
, Object(InputEventJoypadMotion,"resource_local_to_scene":false,"resource_name":"","device":0,"axis":0,"axis_value":-1.0,"script":null)
 ]
}
Jalan_Kanan={
"deadzone": 0.5,
"events": [ Object(InputEventKey,"resource_local_to_scene":false,"resource_name":"","device":0,"alt":false,"shift":false,"control":false,"meta":false,"command":false,"pressed":false,"scancode":68,"unicode":0,"echo":false,"script":null)
, Object(InputEventJoypadMotion,"resource_local_to_scene":false,"resource_name":"","device":0,"axis":0,"axis_value":1.0,"script":null)
 ]
}
Ganti_Topi={
"deadzone": 0.5,
"events": [ Object(InputEventMouseButton,"resource_local_to_scene":false,"resource_name":"","device":0,"alt":false,"shift":false,"control":false,"meta":false,"command":false,"button_mask":0,"position":Vector2( 0, 0 ),"global_position":Vector2( 0, 0 ),"factor":1.0,"button_index":2,"pressed":false,"doubleclick":false,"script":null)
, Object(InputEventJoypadButton,"resource_local_to_scene":false,"resource_name":"","device":0,"button_index":4,"pressure":0.0,"pressed":false,"script":null)
 ]
}
Valve_Interaksi={
"deadzone": 0.5,
"events": [ Object(InputEventKey,"resource_local_to_scene":false,"resource_name":"","device":0,"alt":false,"shift":false,"control":false,"meta":false,"command":false,"pressed":false,"scancode":69,"unicode":0,"echo":false,"script":null)
, Object(InputEventJoypadButton,"resource_local_to_scene":false,"resource_name":"","device":0,"button_index":1,"pressure":0.0,"pressed":false,"script":null)
 ]
}
Nyalakan_Topi={
"deadzone": 0.5,
"events": [ Object(InputEventJoypadButton,"resource_local_to_scene":false,"resource_name":"","device":0,"button_index":6,"pressure":0.0,"pressed":false,"script":null)
, Object(InputEventKey,"resource_local_to_scene":false,"resource_name":"","device":0,"alt":false,"shift":false,"control":false,"meta":false,"command":false,"pressed":false,"scancode":70,"unicode":0,"echo":false,"script":null)
 ]
}
Tunda={
"deadzone": 0.5,
"events": [ Object(InputEventKey,"resource_local_to_scene":false,"resource_name":"","device":0,"alt":false,"shift":false,"control":false,"meta":false,"command":false,"pressed":false,"scancode":16777217,"unicode":0,"echo":false,"script":null)
, Object(InputEventJoypadButton,"resource_local_to_scene":false,"resource_name":"","device":0,"button_index":11,"pressure":0.0,"pressed":false,"script":null)
 ]
}
Keyboard_Space={
"deadzone": 0.5,
"events": [ Object(InputEventKey,"resource_local_to_scene":false,"resource_name":"","device":0,"alt":false,"shift":false,"control":false,"meta":false,"command":false,"pressed":false,"scancode":32,"unicode":0,"echo":false,"script":null)
 ]
}
debug_showZetrixView={
"deadzone": 0.5,
"events": [ Object(InputEventKey,"resource_local_to_scene":false,"resource_name":"","device":0,"alt":false,"shift":true,"control":true,"meta":false,"command":true,"pressed":false,"scancode":84,"unicode":0,"echo":false,"script":null)
 ]
}

[layer_names]

3d_render/layer_1="Entire"
3d_render/layer_2="HMD Only"
3d_render/layer_3="Monitor Only"

[locale]

locale_filter=[ 0, [  ] ]

[physics]

common/physics_fps=500
3d/physics_engine="Bullet"
2d/thread_model=2

[rendering]

quality/driver/fallback_to_gles2=true
quality/intended_usage/framebuffer_allocation.mobile=2
threads/thread_model=2
vram_compression/import_etc=true
quality/subsurface_scattering/quality=2
environment/default_clear_color=Color( 0.0392157, 0.0509804, 0.360784, 1 )
quality/depth/hdr.mobile=true
environment/default_environment="res://default_env.tres"

[tiled_importer]

enable_json_format=true
