[gd_scene load_steps=4 format=2]

[ext_resource path="res://GameDVDCardtridge/HexagonEngine-v3/HexagonEngineV3.gd" type="Script" id=1]
[ext_resource path="res://GameDVDCardtridge/HexagonEngine-v3/SpareParts/UI/UIplace.tscn" type="PackedScene" id=2]
[ext_resource path="res://GameDVDCardtridge/HexagonEngine-v3/SpareParts/UI/MainUINodes/Scaffolds/HexagonEnginev3PauseMainMenu.tscn" type="PackedScene" id=3]

[node name="HexagonEngineV3" type="Node"]
script = ExtResource( 1 )
PauseMainMenuFile = ExtResource( 3 )

[node name="LevelSpace" type="Node" parent="."]

[node name="UICanvas" type="CanvasLayer" parent="."]

[node name="UIplace" parent="UICanvas" instance=ExtResource( 2 )]
[connection signal="doChangeDVD" from="UICanvas/UIplace" to="." method="_on_UIplace_doChangeDVD"]
[connection signal="doShutdown" from="UICanvas/UIplace" to="." method="_on_UIplace_doShutdown"]
